Version,Recipient Number,Account Number,Account Country,Invoice Date,Invoice Number,Invoice Type Code,Invoice Type Detail Code,Account Tax ID,Invoice Currency Code,Invoice Amount,Transaction Date,Pickup Record Number,Lead Shipment Number,World Ease Number,Shipment Reference Number 1,Shipment Reference Number 2,Bill Option Code,Package Quantity,Oversize Quantity,Tracking Number,Package Reference Number 1,Package Reference Number 2,Package Reference Number 3
1,11,98,PK,22-02-12,100009,e-09,rkjx09,33333356,PK,800,22-02-12,342,55678008,45,12,54,RRt1,44,44,fssdth788855,r45,r45,r45
2,22,876,UK,31-03-14,100010,r-09,rkcmc8,33333357,UK,676,31-03-14,343,55678009,23,13,55,FF64,45,45,s3355421,r46,r46,r46
3,33,875,US,8/11/2015,100011,07-t8,r3j3jm4,33333358,US,23.09,8/11/2015,344,55678010,675,14,56,Gvf,46,46,po09000897,r47,r47,r47
4,44,3432,IN,8/11/2015,100012,d-1u76,550lk,33333359,IN,1238,8/11/2015,345,55678011,453,15,57,esfgh787h,47,47,ukk88876,r48,r48,r48
